%YAML 1.1
%TAG !u! tag:unity3d.com,2011:
--- !u!114 &11400000
MonoBehaviour:
  m_ObjectHideFlags: 0
  m_CorrespondingSourceObject: {fileID: 0}
  m_PrefabInstance: {fileID: 0}
  m_PrefabAsset: {fileID: 0}
  m_GameObject: {fileID: 0}
  m_Enabled: 1
  m_EditorHideFlags: 0
  m_Script: {fileID: 11500000, guid: 62ca3f6e272a983448f34b74114ff42b, type: 3}
  m_Name: Player_2
  m_EditorClassIdentifier: 
  playerNum: 2
  speed: 7
  jumpSpeed: 9.7
  gravity: 85
  fastfallMltplr: 0.5
  longJumpMltplr: 0.245
  airMltplr: 1
  particleColor: {r: 0.84705883, g: 0.8784314, b: 0.1764706, a: 0}
  maxRange: 20
  heartSpeed: 5
  repulse: 1
  particleSystem: {fileID: 2489654872165378582, guid: 6bfd1200669752640bcdfd02f5c032ba,
    type: 3}
