%YAML 1.1
%TAG !u! tag:unity3d.com,2011:
--- !u!1001 &5445087603888316758
PrefabInstance:
  m_ObjectHideFlags: 0
  serializedVersion: 2
  m_Modification:
    m_TransformParent: {fileID: 0}
    m_Modifications:
    - target: {fileID: 5483523526500097689, guid: 804c1929c8eb2e44d900148d03f658c3,
        type: 3}
      propertyPath: m_Name
      value: SpecificZone Red Variant
      objectReference: {fileID: 0}
    - target: {fileID: 5483523526500097689, guid: 804c1929c8eb2e44d900148d03f658c3,
        type: 3}
      propertyPath: m_IsActive
      value: 1
      objectReference: {fileID: 0}
    - target: {fileID: 5483523526500097692, guid: 804c1929c8eb2e44d900148d03f658c3,
        type: 3}
      propertyPath: m_LocalPosition.x
      value: -6.28
      objectReference: {fileID: 0}
    - target: {fileID: 5483523526500097692, guid: 804c1929c8eb2e44d900148d03f658c3,
        type: 3}
      propertyPath: m_LocalPosition.y
      value: -3.6488929
      objectReference: {fileID: 0}
    - target: {fileID: 5483523526500097692, guid: 804c1929c8eb2e44d900148d03f658c3,
        type: 3}
      propertyPath: m_LocalPosition.z
      value: -19.14415
      objectReference: {fileID: 0}
    - target: {fileID: 5483523526500097692, guid: 804c1929c8eb2e44d900148d03f658c3,
        type: 3}
      propertyPath: m_LocalRotation.x
      value: -0
      objectReference: {fileID: 0}
    - target: {fileID: 5483523526500097692, guid: 804c1929c8eb2e44d900148d03f658c3,
        type: 3}
      propertyPath: m_LocalRotation.y
      value: -0
      objectReference: {fileID: 0}
    - target: {fileID: 5483523526500097692, guid: 804c1929c8eb2e44d900148d03f658c3,
        type: 3}
      propertyPath: m_LocalRotation.z
      value: -0
      objectReference: {fileID: 0}
    - target: {fileID: 5483523526500097692, guid: 804c1929c8eb2e44d900148d03f658c3,
        type: 3}
      propertyPath: m_LocalRotation.w
      value: 1
      objectReference: {fileID: 0}
    - target: {fileID: 5483523526500097692, guid: 804c1929c8eb2e44d900148d03f658c3,
        type: 3}
      propertyPath: m_RootOrder
      value: 0
      objectReference: {fileID: 0}
    - target: {fileID: 5483523526500097692, guid: 804c1929c8eb2e44d900148d03f658c3,
        type: 3}
      propertyPath: m_LocalEulerAnglesHint.x
      value: 0
      objectReference: {fileID: 0}
    - target: {fileID: 5483523526500097692, guid: 804c1929c8eb2e44d900148d03f658c3,
        type: 3}
      propertyPath: m_LocalEulerAnglesHint.y
      value: 0
      objectReference: {fileID: 0}
    - target: {fileID: 5483523526500097692, guid: 804c1929c8eb2e44d900148d03f658c3,
        type: 3}
      propertyPath: m_LocalEulerAnglesHint.z
      value: 0
      objectReference: {fileID: 0}
    - target: {fileID: 5483523526500097692, guid: 804c1929c8eb2e44d900148d03f658c3,
        type: 3}
      propertyPath: m_LocalScale.x
      value: 1
      objectReference: {fileID: 0}
    - target: {fileID: 5483523526500097692, guid: 804c1929c8eb2e44d900148d03f658c3,
        type: 3}
      propertyPath: m_LocalScale.y
      value: 1
      objectReference: {fileID: 0}
    - target: {fileID: 5483523526500097692, guid: 804c1929c8eb2e44d900148d03f658c3,
        type: 3}
      propertyPath: m_LocalScale.z
      value: 1
      objectReference: {fileID: 0}
    - target: {fileID: 5483523526500097693, guid: 804c1929c8eb2e44d900148d03f658c3,
        type: 3}
      propertyPath: ShapeModule.m_Scale.x
      value: 4.5
      objectReference: {fileID: 0}
    - target: {fileID: 5483523526500097693, guid: 804c1929c8eb2e44d900148d03f658c3,
        type: 3}
      propertyPath: ShapeModule.m_Scale.y
      value: 4.5
      objectReference: {fileID: 0}
    - target: {fileID: 7635668402263245579, guid: 804c1929c8eb2e44d900148d03f658c3,
        type: 3}
      propertyPath: m_LocalPosition.y
      value: 0.55
      objectReference: {fileID: 0}
    - target: {fileID: 5483523526500097688, guid: 804c1929c8eb2e44d900148d03f658c3,
        type: 3}
      propertyPath: safeHearts.Array.size
      value: 1
      objectReference: {fileID: 0}
    - target: {fileID: 5483523526500097688, guid: 804c1929c8eb2e44d900148d03f658c3,
        type: 3}
      propertyPath: color.r
      value: 1
      objectReference: {fileID: 0}
    - target: {fileID: 5483523526500097688, guid: 804c1929c8eb2e44d900148d03f658c3,
        type: 3}
      propertyPath: color.g
      value: 0.9473175
      objectReference: {fileID: 0}
    - target: {fileID: 5483523526500097688, guid: 804c1929c8eb2e44d900148d03f658c3,
        type: 3}
      propertyPath: color.b
      value: 0
      objectReference: {fileID: 0}
    - target: {fileID: 5483523526500097688, guid: 804c1929c8eb2e44d900148d03f658c3,
        type: 3}
      propertyPath: safeHearts.Array.data[0]
      value: 
      objectReference: {fileID: 0}
    - target: {fileID: 5586454193994923942, guid: 804c1929c8eb2e44d900148d03f658c3,
        type: 3}
      propertyPath: color.r
      value: 0
      objectReference: {fileID: 0}
    - target: {fileID: 5586454193994923942, guid: 804c1929c8eb2e44d900148d03f658c3,
        type: 3}
      propertyPath: color.g
      value: 1
      objectReference: {fileID: 0}
    - target: {fileID: 5586454193994923942, guid: 804c1929c8eb2e44d900148d03f658c3,
        type: 3}
      propertyPath: color.b
      value: 0.21960784
      objectReference: {fileID: 0}
    - target: {fileID: 5586454193994923942, guid: 804c1929c8eb2e44d900148d03f658c3,
        type: 3}
      propertyPath: m_Enabled
      value: 1
      objectReference: {fileID: 0}
    - target: {fileID: 3959528014857232904, guid: 804c1929c8eb2e44d900148d03f658c3,
        type: 3}
      propertyPath: m_IsActive
      value: 1
      objectReference: {fileID: 0}
    - target: {fileID: 6739788829824895572, guid: 804c1929c8eb2e44d900148d03f658c3,
        type: 3}
      propertyPath: m_Size.x
      value: 4.5
      objectReference: {fileID: 0}
    - target: {fileID: 6739788829824895572, guid: 804c1929c8eb2e44d900148d03f658c3,
        type: 3}
      propertyPath: m_Center.y
      value: 2.35
      objectReference: {fileID: 0}
    - target: {fileID: 4097618101027411877, guid: 804c1929c8eb2e44d900148d03f658c3,
        type: 3}
      propertyPath: m_Size.x
      value: 4.5
      objectReference: {fileID: 0}
    - target: {fileID: 4097618101027411877, guid: 804c1929c8eb2e44d900148d03f658c3,
        type: 3}
      propertyPath: m_Center.y
      value: -2.35
      objectReference: {fileID: 0}
    - target: {fileID: 9025272649222802858, guid: 804c1929c8eb2e44d900148d03f658c3,
        type: 3}
      propertyPath: m_Size.x
      value: 4.5
      objectReference: {fileID: 0}
    - target: {fileID: 9025272649222802858, guid: 804c1929c8eb2e44d900148d03f658c3,
        type: 3}
      propertyPath: m_Size.y
      value: 4.5
      objectReference: {fileID: 0}
    - target: {fileID: 8788343804446246594, guid: 804c1929c8eb2e44d900148d03f658c3,
        type: 3}
      propertyPath: m_Center.x
      value: 2.35
      objectReference: {fileID: 0}
    - target: {fileID: 8788343804446246594, guid: 804c1929c8eb2e44d900148d03f658c3,
        type: 3}
      propertyPath: m_Size.y
      value: 4.5
      objectReference: {fileID: 0}
    - target: {fileID: 4247231519679420496, guid: 804c1929c8eb2e44d900148d03f658c3,
        type: 3}
      propertyPath: m_Center.x
      value: -2.35
      objectReference: {fileID: 0}
    - target: {fileID: 4247231519679420496, guid: 804c1929c8eb2e44d900148d03f658c3,
        type: 3}
      propertyPath: m_Size.y
      value: 4.5
      objectReference: {fileID: 0}
    - target: {fileID: 5483523526500097691, guid: 804c1929c8eb2e44d900148d03f658c3,
        type: 3}
      propertyPath: m_Size.x
      value: 5
      objectReference: {fileID: 0}
    - target: {fileID: 5483523526500097691, guid: 804c1929c8eb2e44d900148d03f658c3,
        type: 3}
      propertyPath: m_Size.y
      value: 3
      objectReference: {fileID: 0}
    - target: {fileID: 4348292560519969072, guid: 804c1929c8eb2e44d900148d03f658c3,
        type: 3}
      propertyPath: ShapeModule.m_Scale.x
      value: 4.5
      objectReference: {fileID: 0}
    - target: {fileID: 4348292560519969072, guid: 804c1929c8eb2e44d900148d03f658c3,
        type: 3}
      propertyPath: ShapeModule.m_Scale.y
      value: 4.5
      objectReference: {fileID: 0}
    - target: {fileID: 4348292560519969072, guid: 804c1929c8eb2e44d900148d03f658c3,
        type: 3}
      propertyPath: InitialModule.startColor.minColor.r
      value: 1
      objectReference: {fileID: 0}
    - target: {fileID: 4348292560519969072, guid: 804c1929c8eb2e44d900148d03f658c3,
        type: 3}
      propertyPath: InitialModule.startColor.minColor.g
      value: 0.33725488
      objectReference: {fileID: 0}
    - target: {fileID: 4348292560519969072, guid: 804c1929c8eb2e44d900148d03f658c3,
        type: 3}
      propertyPath: InitialModule.startColor.minColor.b
      value: 0.648039
      objectReference: {fileID: 0}
    - target: {fileID: 4348292560519969072, guid: 804c1929c8eb2e44d900148d03f658c3,
        type: 3}
      propertyPath: InitialModule.startColor.maxColor.r
      value: 1
      objectReference: {fileID: 0}
    - target: {fileID: 4348292560519969072, guid: 804c1929c8eb2e44d900148d03f658c3,
        type: 3}
      propertyPath: InitialModule.startColor.maxColor.g
      value: 0.4809327
      objectReference: {fileID: 0}
    - target: {fileID: 4348292560519969072, guid: 804c1929c8eb2e44d900148d03f658c3,
        type: 3}
      propertyPath: ShapeModule.m_Scale.z
      value: 1
      objectReference: {fileID: 0}
    - target: {fileID: 4348292560519969072, guid: 804c1929c8eb2e44d900148d03f658c3,
        type: 3}
      propertyPath: CollisionModule.plane0
      value: 
      objectReference: {fileID: 0}
    - target: {fileID: 3606732225880339529, guid: 804c1929c8eb2e44d900148d03f658c3,
        type: 3}
      propertyPath: ShapeModule.m_Scale.x
      value: 0.3
      objectReference: {fileID: 0}
    - target: {fileID: 3606732225880339529, guid: 804c1929c8eb2e44d900148d03f658c3,
        type: 3}
      propertyPath: ShapeModule.m_Scale.y
      value: 1.5
      objectReference: {fileID: 0}
    - target: {fileID: 3606732225880339529, guid: 804c1929c8eb2e44d900148d03f658c3,
        type: 3}
      propertyPath: ShapeModule.m_Scale.z
      value: 0.3
      objectReference: {fileID: 0}
    - target: {fileID: 3606732225880339529, guid: 804c1929c8eb2e44d900148d03f658c3,
        type: 3}
      propertyPath: ColorModule.gradient.maxGradient.key0.r
      value: 1
      objectReference: {fileID: 0}
    - target: {fileID: 3606732225880339529, guid: 804c1929c8eb2e44d900148d03f658c3,
        type: 3}
      propertyPath: ColorModule.gradient.maxGradient.key0.g
      value: 0
      objectReference: {fileID: 0}
    - target: {fileID: 3606732225880339529, guid: 804c1929c8eb2e44d900148d03f658c3,
        type: 3}
      propertyPath: ColorModule.gradient.maxGradient.key0.b
      value: 0.05809641
      objectReference: {fileID: 0}
    - target: {fileID: 3606732225880339529, guid: 804c1929c8eb2e44d900148d03f658c3,
        type: 3}
      propertyPath: ColorModule.gradient.maxGradient.key1.r
      value: 1
      objectReference: {fileID: 0}
    - target: {fileID: 3606732225880339529, guid: 804c1929c8eb2e44d900148d03f658c3,
        type: 3}
      propertyPath: ColorModule.gradient.maxGradient.key1.g
      value: 0.69535524
      objectReference: {fileID: 0}
    - target: {fileID: 3606732225880339529, guid: 804c1929c8eb2e44d900148d03f658c3,
        type: 3}
      propertyPath: ColorModule.gradient.maxGradient.key1.b
      value: 0.20784312
      objectReference: {fileID: 0}
    m_RemovedComponents:
    - {fileID: 5483523526500097690, guid: 804c1929c8eb2e44d900148d03f658c3, type: 3}
  m_SourcePrefab: {fileID: 100100000, guid: 804c1929c8eb2e44d900148d03f658c3, type: 3}
